digraph Prevodilac {
	graph [fontname="times new roman"];
    node [fontname="times new roman"];
    edge [fontname="times new roman"];
	
	node [shape="box", fixedsize="shape", style="rounded", width="1.6", height="0.6"];
	
    Node1 [label="MethodCallClass", font="11"];
    Node2 [label="Designator", font="11"];
    Node3 [label="ActualPars0Or1", font="11"];

    Node1 -> Node2
    Node1 -> Node3
}